<?xml version="1.0" standalone="no"?>
<svg class="" width="1105px" height="946px" viewBox="0 0 1105 946" version="1.1" xmlns="http://www.w3.org/2000/svg" xmlns:xlink="http://www.w3.org/1999/xlink">
    <!-- Generator: Sketch 60 (88103) - https://sketch.com -->
    <title>Development</title>
    <desc>Created by Webpixels.</desc>
    <g id="Page-1" stroke="none" stroke-width="1" fill="none" fill-rule="evenodd">
        <g id="development">
            <polygon id="Path" fill="#80B2F2" fill-rule="nonzero" points="256.8 863.9 256.8 863.9 256.8 759.3 216.5 759.3 216.5 863.9 105.7 892.8 105.7 908.2 236.6 892.8 367.6 908.2 367.6 892.8"></polygon>
            <path d="M397.5,834.6 L386.5,870.7 C386.5,870.7 391.1,890.2 408.4,890 C425.8,889.8 423,883.6 423,883.6 L440.7,839.7 L397.5,834.6 Z" id="Path" fill="#FFDFD7" fill-rule="nonzero"></path>
            <path d="M388.2,864.9 C388.2,864.9 385.3,865 382.9,870.9 C380.6,876.8 371.3,897.9 371.3,897.9 L425.6,931.3 L482.3,936.5 C482.3,936.5 492,931.4 485.2,921 C478.4,910.6 444.3,899.9 444.3,899.9 L426.4,878 C426.4,878 415.3,880.1 403.4,876 C391.5,871.9 388.2,864.9 388.2,864.9 Z" id="Path" fill="#FFBB23" fill-rule="nonzero"></path>
            <path d="M333.4,90.2 C333.4,90.2 302.7,208.9 393.8,296.2 C484.9,383.5 597.5,399.8 610.9,465.6 C624.4,531.4 602.6,606.3 561.3,662.3 C520,718.3 456.7,792.9 561.3,834.6 C665.9,876.3 765.8,845.6 822.8,791.8 C879.8,738 889.7,667.4 833.8,606.7 C777.8,546 770.2,528.4 797.6,434 C825,339.6 838.2,293.5 744.9,276 C651.6,258.4 579.9,325.4 531.8,188.2 C483.7,51 455.3,-18.1 399.3,5 C343.3,28 333.4,90.2 333.4,90.2 Z" id="Path" fill="#FFDDD5" fill-rule="nonzero"></path>
            <polygon id="Path" fill="#5F4285" fill-rule="nonzero" points="1014.4 781.5 992.8 781.5 997.9 598.6 1009.2 598.6"></polygon>
            <polygon id="Path" fill="#3B94E8" fill-rule="nonzero" points="578.5 893.5 561.3 893.5 544.1 893.5 454.8 918.6 454.8 927.1 561.3 927.1 667.9 927.1 667.9 918.6"></polygon>
            <path d="M263.9,381.4 C263.9,381.4 276.8,340.4 277,339.7 C277.2,339 262.6,303.9 271.6,284.6 C280.6,265.3 300.9,267.3 308.9,267.5 C316.9,267.7 344,274.3 342.8,291.4 C341.6,308.5 335.2,341.9 328.9,350.4 C322.6,358.9 294,348.2 294,348.2 L293.6,377.7 L263.9,381.4 Z" id="Path" fill="#FFDFD7" fill-rule="nonzero"></path>
            <path d="M421,851.3 L420.8,884.5 C420.8,884.5 431.7,901.8 439.1,901.9 C446.5,902 462,905.4 465.4,886 C468.8,866.6 471.6,852.5 471.6,852.5 L421,851.3 Z" id="Path" fill="#FFDFD7" fill-rule="nonzero"></path>
            <path d="M101.4,702.3 C101.4,702.3 81.4,604.5 78.5,551.8 C75.6,499.1 81.4,443.5 116.5,441.3 C151.6,439.1 177.2,498.4 181.6,521.8 C186,545.2 201.2,650.1 101.4,702.3 Z" id="Path" fill="#FFC022" fill-rule="nonzero"></path>
            <path d="M119.8,717.9 C119.8,717.9 105.2,717.5 105.9,731.4 C106.6,745.3 112.5,759.2 163,762.1 C213.5,765 324.3,757.7 345.9,751.5 C367.5,745.3 380.3,732.5 359.4,710.9 C338.6,689.3 231,702.5 205.8,705 C180.5,707.6 119.8,717.9 119.8,717.9 Z" id="Path" fill="#FFC022" fill-rule="nonzero"></path>
            <circle id="Oval" fill="#473261" fill-rule="nonzero" cx="362.5" cy="929" r="15.4"></circle>
            <circle id="Oval" fill="#473261" fill-rule="nonzero" cx="114.3" cy="929" r="15.4"></circle>
            <path d="M588.8,581.1 L533.8,581.1 C529.9,581.1 526.7,577.9 526.7,574 L526.7,553.3 L595.8,553.3 L595.8,574 C595.9,577.9 592.7,581.1 588.8,581.1 Z" id="Path" fill="#80B2F2" fill-rule="nonzero"></path>
            <rect id="Rectangle" fill="#80B2F2" fill-rule="nonzero" x="544.1" y="581.1" width="34.4" height="312.4"></rect>
            <polygon id="Path" fill="#4994EC" fill-rule="nonzero" points="739.8 553.3 382.8 553.3 382.8 540.8 739.8 526.9"></polygon>
            <path d="M343,619.1 C343,619.1 438.1,622.8 460.6,628.1 C483,633.5 495.6,645.6 494.4,668.3 C493.2,691 428.4,842.2 428.4,842.2 L389.9,836.8 L407.5,718.3 L343,619.1 Z" id="Path" fill="#4994EC" fill-rule="nonzero"></path>
            <polygon id="Path" fill="#4994EC" fill-rule="nonzero" points="387.5 818.1 429.5 824.7 425.9 845.9 384.1 839.6"></polygon>
            <polygon id="Path" stroke="#2776C4" stroke-width="3" stroke-linecap="round" stroke-linejoin="round" points="387.5 818.1 429.5 824.7 425.9 845.9 384.1 839.6"></polygon>
            <path d="M420.7,884.4 C420.7,884.4 414.7,886.7 415.2,893.4 C415.7,900.1 417.2,929.2 417.2,929.2 C417.2,929.2 416.1,938.1 437,938 C457.8,937.9 546.5,937 546.5,937 C546.5,937 553.3,926.5 543.1,918.7 C532.9,910.9 465.7,884.3 465.7,884.3 C465.7,884.3 458.2,890.9 442.4,891 C426.5,891.3 420.7,884.4 420.7,884.4 Z" id="Path" fill="#FFBB23" fill-rule="nonzero"></path>
            <path d="M276.3,341.9 C276.3,341.9 262.5,323.4 263.9,299 C265.3,274.6 266.5,258.3 278.5,254.4 C290.4,250.5 295.3,257.8 295.3,257.8 C295.3,257.8 306,249.8 318.2,250.7 C330.4,251.7 332.8,267.4 332.8,267.4 C332.8,267.4 340.4,260.5 349.4,263.2 C358.4,265.9 352.2,283.2 342.9,282.5 C342.9,282.5 326,280.8 306.5,284.2 L301.6,306.4 L294.5,305.2 C294.5,305.2 297.4,293 290.6,291.5 C283.8,290 277.7,298.1 281.3,307.8 C284.9,317.5 283.4,333.3 276.3,341.9 Z" id="Path" fill="#4994EC" fill-rule="nonzero"></path>
            <polygon id="Path" fill="#5F4285" fill-rule="nonzero" points="531.4 535.3 531.4 527.6 670.6 519.3 671.6 529.9"></polygon>
            <polygon id="Path" fill="#5F4285" fill-rule="nonzero" points="660.5 519.9 712.6 392.7 721.2 396.4 671.1 524.2"></polygon>
            <rect id="Rectangle" fill="#5F4285" fill-rule="nonzero" transform="translate(653.745955, 170.676595) rotate(45.000000) translate(-653.745955, -170.676595) " x="647.896011" y="150.176792" width="11.6998878" height="40.9996068"></rect>
            <rect id="Rectangle" fill="#3B94E8" fill-rule="nonzero" transform="translate(150.050920, 132.689680) rotate(-37.589552) translate(-150.050920, -132.689680) " x="144.200927" y="112.189703" width="11.6999869" height="40.9999541"></rect>
            <rect id="Rectangle" fill="#3B94E8" fill-rule="nonzero" transform="translate(51.961395, 341.894215) rotate(25.486254) translate(-51.961395, -341.894215) " x="46.1113208" y="321.393955" width="11.7001485" height="41.0005203"></rect>
            <rect id="Rectangle" fill="#3B94E8" fill-rule="nonzero" transform="translate(785.451668, 183.402289) rotate(2.148641) translate(-785.451668, -183.402289) " x="779.60165" y="162.902226" width="11.700036" height="41.0001261"></rect>
            <circle id="Oval" fill="#5F4285" fill-rule="nonzero" cx="11.2" cy="206.5" r="11"></circle>
            <circle id="Oval" fill="#3B94E8" fill-rule="nonzero" cx="646.8" cy="62.3" r="8.6"></circle>
            <circle id="Oval" fill="#5F4285" fill-rule="nonzero" cx="531.9" cy="23.4" r="12.3"></circle>
            <polygon id="Path" fill="#FFBB23" fill-rule="nonzero" points="1078.3 945.4 928.8 945.4 903 776.4 1104.2 776.4"></polygon>
            <circle id="Oval" fill="#3B94E8" fill-rule="nonzero" cx="1003.6" cy="518.6" r="92.2"></circle>
            <circle id="Oval" fill="#5F4285" fill-rule="nonzero" cx="195.6" cy="15.5" r="10.5"></circle>
            <path d="M197.1,606.7 C197.1,606.7 190.8,617.7 192.5,642.9 C194.1,668.1 208.4,706.9 289.4,715 C370.4,723 422,722.3 422,722.3 L422,856.5 L475.4,856.5 C475.4,856.5 484.2,809.3 486.4,794 C488.6,778.7 504,711.7 497.4,678 C490.8,644.3 458.6,639.2 435.2,634.8 C411.8,630.4 321.1,615.4 321.1,615.4 L197.1,606.7 Z" id="Path" fill="#5492ED" fill-rule="nonzero"></path>
            <path d="M422,834.6 L422,722.3 L406.9,722.2 C406.9,722.2 394,721.9 379,721.3" id="Path" stroke="#2776C4" stroke-width="3" stroke-linecap="round" stroke-linejoin="round"></path>
            <line x1="420.9" y1="859.9" x2="420.7" y2="884.4" id="Path" stroke="#F2C0B6" stroke-width="3" stroke-linecap="round" stroke-linejoin="round"></line>
            <polygon id="Path" fill="#4994EC" fill-rule="nonzero" points="481.1 859.9 414.8 859.9 414.8 834.6 485.4 835.5"></polygon>
            <polygon id="Path" stroke="#2776C4" stroke-width="3" stroke-linecap="round" stroke-linejoin="round" points="422 834.6 485.4 835.5 481.1 859.9 414.8 859.9 414.8 834.6"></polygon>
            <path d="M417,926 C417,926 414.9,896.6 415.3,891.4 C415.7,886.2 420.7,884.4 420.7,884.4" id="Path" stroke="#FF9B24" stroke-width="3" stroke-linecap="round" stroke-linejoin="round"></path>
            <path d="M494.4,668.3 C484,643.2 456,638.7 435.1,634.8 C419.1,631.8 371.4,623.8 343,619.1 C330,616.9 321,615.4 321,615.4" id="Path" stroke="#2776C4" stroke-width="3" stroke-linecap="round" stroke-linejoin="round"></path>
            <path d="M578.1,521.2 C565.5,514.6 544.6,517.4 537.6,518.5 C530.7,519.6 519.9,519.7 519.9,519.7 L410.8,509.1 L366.4,460.3 C331.3,468.3 346,495.4 346,495.4 L394,540.2 L521.7,535.9 C539,536.5 561,529.1 564.4,528.5 C568,527.8 590.6,527.8 578.1,521.2 Z" id="Path" fill="#FFDFD7" fill-rule="nonzero"></path>
            <path d="M191.5,605.2 C191.5,605.2 225.9,615.1 249.3,613.2 C272.7,611.4 321,615.4 321,615.4 L321,471.7 L351,510.4 C351,510.4 367.1,476 382.8,463.6 C382.8,463.6 323.5,395.3 301.6,381.8 C279.7,368.3 261.7,378.5 257.3,390.6 C252.9,402.7 191.5,605.2 191.5,605.2 Z" id="Path" fill="#603E87" fill-rule="nonzero"></path>
            <path d="M311.8,460.3 L351,510.4 C351,510.4 366.6,476.5 382.8,463.6" id="Path" stroke="#422866" stroke-width="3" stroke-linecap="round" stroke-linejoin="round"></path>
            <line x1="321" y1="471.7" x2="321" y2="615.5" id="Path" stroke="#422866" stroke-width="3" stroke-linecap="round" stroke-linejoin="round"></line>
        </g>
    </g>
</svg>